lab4/micp.vcd
$comment
Copyright (C) 1991-2009 Altera Corporation
Your use of Altera Corporation's design tools, logic functions 
and other software and tools, and its AMPP partner logic 
functions, and any output files from any of the foregoing 
(including device programming or simulation files), and any 
associated documentation or information are expressly subject 
to the terms and conditions of the Altera Program License 
Subscription Agreement, Altera MegaCore Function License 
Agreement, or other applicable license agreement, including, 
without limitation, that your use is for the sole purpose of 
programming logic devices manufactured by Altera and sold by 
Altera or its authorized distributors.  Please refer to the 
applicable agreement for further details.
$end

$date 
  10/28/2019 23:04:48 
$end
$version 
 QUARTUS_VCD_EXPORT 1.0 
$end
$timescale
  1 ps
$end
$scope module result $end
$var reg 8 ! data55[7:0] $end
$var reg 1 " aload $end
$var reg 1 # clk $end
$var reg 12 $ IR[11:0] $end
$var reg 8 % ADDRESS[7:0] $end
$var reg 6 & DATA[5:0] $end
$var reg 8 ' IP[7:0] $end
$var reg 8 ( AR[7:0] $end
$var reg 6 ) DR[5:0] $end
$var reg 1 * DCa0 $end
$var reg 1 + DCa1 $end
$var reg 1 , DCa2 $end
$var reg 1 - DCa3 $end
$var reg 1 . DCa4 $end
$var reg 1 / DCa5 $end
$var reg 1 0 DCa6 $end
$var reg 1 1 DCa7 $end
$var reg 1 2 DCa8 $end
$var reg 1 3 DCa9 $end
$var reg 1 4 DCa10 $end
$var reg 6 5 REG[5:0] $end
$var reg 6 6 AX_out[5:0] $end
$var reg 6 7 BX_out[5:0] $end
$var reg 6 8 CX_out[5:0] $end
$var reg 6 9 DX_out[5:0] $end
$var reg 1 : dr_contr $end
$var reg 1 ; first_com_contr $end
$var reg 1 < ip_contr $end
$var reg 1 = second_com_contr $end
$var reg 1 > ar_contr $end
$var reg 1 ? ram_clk $end
$var reg 1 @ res $end
$var reg 6 A sub[5:0] $end
$upscope $end
$enddefinitions $end
#0
$dumpvars
b0 !
0"
0#
b0 $
bZ %
bZ &
b0 '
b0 (
b0 )
1*
0+
0,
0-
0.
0/
00
01
02
03
04
b0 5
b0 6
b0 7
b0 8
b0 9
0:
0;
0<
0=
0>
0?
0@
b0 A
$end
#10000
1#
b0 %
b0 &
0*
1+
b100 5
b100 6
b101 7
b110 8
b111 9
1<
#20000
0#
b100 &
0+
#30000
1#
b1 %
b1 '
1,
b101 5
#40000
0#
b100000000 $
b11110 &
0,
#50000
1#
1-
1;
0<
#60000
0#
b100011110 $
bZ &
b1 (
0-
0;
1>
#70000
1#
b101 &
1.
#80000
0#
b101 )
0.
#90000
1#
b11110 %
1/
b110 5
1:
1=
0>
#100000
0#
0/
1?
b110 A
#110000
1#
bZ %
bZ &
b10 '
10
b0XXX 5
0:
0=
0?
#120000
0#
00
b0XXX 5
#130000
1#
11
b0XXX 5
#140000
0#
01
b0XXX 5
#150000
1#
12
b0XXX 5
#160000
0#
1*
02
b0XXX 5
#170000
1#
b10 %
b11110 &
0*
1+
b110 5
1<
#180000
0#
b101100 &
0+
#190000
1#
b11 %
b11 '
1,
b111 5
#200000
0#
b101100011110 $
b0 &
0,
#210000
1#
1-
1;
0<
#220000
0#
b101100000000 $
bZ &
b11 (
0-
0;
1>
#230000
1#
b111 &
1.
#240000
0#
b111 )
0.
#250000
1#
bZ %
1/
b0XXX 5
1:
0>
#260000
0#
0/
b0XXX 5
b1000 A
#270000
1#
b1000 &
b100 '
10
b0XXX 5
0:
#280000
0#
b1000 )
00
b0XXX 5
#290000
1#
b11 %
11
b111 5
1:
1>
#300000
0#
01
b1000 5
b1000 9
#310000
1#
bZ %
bZ &
12
b0XXXX 5
0:
0>
#320000
0#
1*
02
b0XXXX 5
#330000
1#
b100 %
b0 &
0*
1+
b100 5
1<
#340000
0#
0+
#350000
1#
b101 %
b101 '
1,
b101 5
#360000
0#
b0 $
0,
#370000
1#
b0 %
1-
b100 5
1;
0<
#380000
0#
bZ &
b0 (
0-
0;
1>
#390000
1#
b100 &
1.
#400000
0#
b100 )
0.
#410000
1#
1/
1:
1=
0>
#420000
0#
0/
1?
b101 A
#430000
1#
bZ %
bZ &
b110 '
10
b0XXXX 5
0:
0=
0?
#440000
0#
00
b0XXXX 5
#450000
1#
11
b0XXXX 5
#460000
0#
01
b0XXXX 5
#470000
1#
12
b0XXXX 5
#480000
0#
1*
02
b0XXXX 5
#490000
1#
b110 %
b0 &
0*
1+
b110 5
1<
#500000
0#
0+
#510000
1#
b111 %
b111 '
1,
b1000 5
#520000
0#
0,
#530000
1#
b0 %
1-
b100 5
1;
0<
#540000
0#
bZ &
0-
0;
1>
#550000
1#
b100 &
1.
#560000
0#
0.
#570000
1#
1/
1:
1=
0>
#580000
0#
0/
1?
#590000
1#
bZ %
bZ &
b1000 '
10
b0XXXX 5
0:
0=
0?
#600000
0#
00
b0XXXX 5
#610000
1#
11
b0XXXX 5
#620000
0#
01
b0XXXX 5
#630000
1#
12
b0XXXX 5
#640000
0#
1*
02
b0XXXX 5
#650000
1#
b1000 %
b0 &
0*
1+
b100 5
1<
#660000
0#
0+
#670000
1#
b1001 %
b1001 '
1,
b101 5
#680000
0#
0,
#690000
1#
b0 %
1-
b100 5
1;
0<
#700000
0#
bZ &
0-
0;
1>
#710000
1#
b100 &
1.
#720000
0#
0.
#730000
1#
1/
1:
1=
0>
#740000
0#
0/
1?
#750000
1#
bZ %
bZ &
b1010 '
10
b0XXXX 5
0:
0=
0?
#760000
0#
00
b0XXXX 5
#770000
1#
11
b0XXXX 5
#780000
0#
01
b0XXXX 5
#790000
1#
12
b0XXXX 5
#800000
0#
1*
02
b0XXXX 5
#810000
1#
b1010 %
b0 &
0*
1+
b110 5
1<
#820000
0#
0+
#830000
1#
b1011 %
b1011 '
1,
b1000 5
#840000
0#
0,
#850000
1#
b0 %
1-
b100 5
1;
0<
#860000
0#
bZ &
0-
0;
1>
#870000
1#
b100 &
1.
#880000
0#
0.
#890000
1#
1/
1:
1=
0>
#900000
0#
0/
1?
#910000
1#
bZ %
bZ &
b1100 '
10
b0XXXX 5
0:
0=
0?
#920000
0#
00
b0XXXX 5
#930000
1#
11
b0XXXX 5
#940000
0#
01
b0XXXX 5
#950000
1#
12
b0XXXX 5
#960000
0#
1*
02
b0XXXX 5
#970000
1#
b1100 %
b0 &
0*
1+
b100 5
1<
#980000
0#
0+
#990000
1#
b1101 %
b1101 '
1,
b101 5
